%YAML 1.1
%TAG !u! tag:unity3d.com,2011:
--- !u!1 &4056455809379049475
GameObject:
  m_ObjectHideFlags: 0
  m_CorrespondingSourceObject: {fileID: 0}
  m_PrefabInstance: {fileID: 0}
  m_PrefabAsset: {fileID: 0}
  serializedVersion: 6
  m_Component:
  - component: {fileID: 4056455809379049474}
  - component: {fileID: 4056455809379049472}
  - component: {fileID: 4056455809379049473}
  m_Layer: 5
  m_Name: GoldPanel
  m_TagString: Untagged
  m_Icon: {fileID: 0}
  m_NavMeshLayer: 0
  m_StaticEditorFlags: 0
  m_IsActive: 1
--- !u!224 &4056455809379049474
RectTransform:
  m_ObjectHideFlags: 0
  m_CorrespondingSourceObject: {fileID: 0}
  m_PrefabInstance: {fileID: 0}
  m_PrefabAsset: {fileID: 0}
  m_GameObject: {fileID: 4056455809379049475}
  m_LocalRotation: {x: 0, y: 0, z: 0, w: 1}
  m_LocalPosition: {x: 0, y: 0, z: 0}
  m_LocalScale: {x: 1, y: 1, z: 1}
  m_Children:
  - {fileID: 9057861023905490237}
  - {fileID: 4056455809360349835}
  m_Father: {fileID: 0}
  m_RootOrder: 0
  m_LocalEulerAnglesHint: {x: 0, y: 0, z: 0}
  m_AnchorMin: {x: 0, y: 1}
  m_AnchorMax: {x: 1, y: 1}
  m_AnchoredPosition: {x: 0, y: -96}
  m_SizeDelta: {x: -41.899994, y: 68.599976}
  m_Pivot: {x: 0.5, y: 0.5}
--- !u!222 &4056455809379049472
CanvasRenderer:
  m_ObjectHideFlags: 0
  m_CorrespondingSourceObject: {fileID: 0}
  m_PrefabInstance: {fileID: 0}
  m_PrefabAsset: {fileID: 0}
  m_GameObject: {fileID: 4056455809379049475}
  m_CullTransparentMesh: 0
--- !u!114 &4056455809379049473
MonoBehaviour:
  m_ObjectHideFlags: 0
  m_CorrespondingSourceObject: {fileID: 0}
  m_PrefabInstance: {fileID: 0}
  m_PrefabAsset: {fileID: 0}
  m_GameObject: {fileID: 4056455809379049475}
  m_Enabled: 1
  m_EditorHideFlags: 0
  m_Script: {fileID: -765806418, guid: f70555f144d8491a825f0804e09c671c, type: 3}
  m_Name: 
  m_EditorClassIdentifier: 
  m_Material: {fileID: 0}
  m_Color: {r: 1, g: 1, b: 1, a: 0.392}
  m_RaycastTarget: 1
  m_OnCullStateChanged:
    m_PersistentCalls:
      m_Calls: []
    m_TypeName: UnityEngine.UI.MaskableGraphic+CullStateChangedEvent, UnityEngine.UI,
      Version=1.0.0.0, Culture=neutral, PublicKeyToken=null
  m_Sprite: {fileID: 10907, guid: 0000000000000000f000000000000000, type: 0}
  m_Type: 1
  m_PreserveAspect: 0
  m_FillCenter: 1
  m_FillMethod: 4
  m_FillAmount: 1
  m_FillClockwise: 1
  m_FillOrigin: 0
  m_UseSpriteMesh: 0
--- !u!1001 &4056455810702588577
PrefabInstance:
  m_ObjectHideFlags: 0
  serializedVersion: 2
  m_Modification:
    m_TransformParent: {fileID: 4056455809379049474}
    m_Modifications:
    - target: {fileID: 5041939817772949403, guid: b43184f0045012444a69c45fc0f13f8a,
        type: 3}
      propertyPath: m_Name
      value: GoldTextLabel
      objectReference: {fileID: 0}
    - target: {fileID: 5041939817772949404, guid: b43184f0045012444a69c45fc0f13f8a,
        type: 3}
      propertyPath: m_LocalPosition.x
      value: 0
      objectReference: {fileID: 0}
    - target: {fileID: 5041939817772949404, guid: b43184f0045012444a69c45fc0f13f8a,
        type: 3}
      propertyPath: m_LocalPosition.y
      value: 0
      objectReference: {fileID: 0}
    - target: {fileID: 5041939817772949404, guid: b43184f0045012444a69c45fc0f13f8a,
        type: 3}
      propertyPath: m_LocalPosition.z
      value: 0
      objectReference: {fileID: 0}
    - target: {fileID: 5041939817772949404, guid: b43184f0045012444a69c45fc0f13f8a,
        type: 3}
      propertyPath: m_LocalRotation.x
      value: -0
      objectReference: {fileID: 0}
    - target: {fileID: 5041939817772949404, guid: b43184f0045012444a69c45fc0f13f8a,
        type: 3}
      propertyPath: m_LocalRotation.y
      value: -0
      objectReference: {fileID: 0}
    - target: {fileID: 5041939817772949404, guid: b43184f0045012444a69c45fc0f13f8a,
        type: 3}
      propertyPath: m_LocalRotation.z
      value: -0
      objectReference: {fileID: 0}
    - target: {fileID: 5041939817772949404, guid: b43184f0045012444a69c45fc0f13f8a,
        type: 3}
      propertyPath: m_LocalRotation.w
      value: 1
      objectReference: {fileID: 0}
    - target: {fileID: 5041939817772949404, guid: b43184f0045012444a69c45fc0f13f8a,
        type: 3}
      propertyPath: m_RootOrder
      value: 0
      objectReference: {fileID: 0}
    - target: {fileID: 5041939817772949404, guid: b43184f0045012444a69c45fc0f13f8a,
        type: 3}
      propertyPath: m_LocalEulerAnglesHint.x
      value: 0
      objectReference: {fileID: 0}
    - target: {fileID: 5041939817772949404, guid: b43184f0045012444a69c45fc0f13f8a,
        type: 3}
      propertyPath: m_LocalEulerAnglesHint.y
      value: 0
      objectReference: {fileID: 0}
    - target: {fileID: 5041939817772949404, guid: b43184f0045012444a69c45fc0f13f8a,
        type: 3}
      propertyPath: m_LocalEulerAnglesHint.z
      value: 0
      objectReference: {fileID: 0}
    - target: {fileID: 5041939817772949404, guid: b43184f0045012444a69c45fc0f13f8a,
        type: 3}
      propertyPath: m_AnchoredPosition.x
      value: 5.800049
      objectReference: {fileID: 0}
    - target: {fileID: 5041939817772949404, guid: b43184f0045012444a69c45fc0f13f8a,
        type: 3}
      propertyPath: m_AnchoredPosition.y
      value: -33.999996
      objectReference: {fileID: 0}
    - target: {fileID: 5041939817772949404, guid: b43184f0045012444a69c45fc0f13f8a,
        type: 3}
      propertyPath: m_SizeDelta.x
      value: 11.600006
      objectReference: {fileID: 0}
    - target: {fileID: 5041939817772949404, guid: b43184f0045012444a69c45fc0f13f8a,
        type: 3}
      propertyPath: m_SizeDelta.y
      value: 185.1
      objectReference: {fileID: 0}
    - target: {fileID: 5041939817772949404, guid: b43184f0045012444a69c45fc0f13f8a,
        type: 3}
      propertyPath: m_AnchorMin.x
      value: 0
      objectReference: {fileID: 0}
    - target: {fileID: 5041939817772949404, guid: b43184f0045012444a69c45fc0f13f8a,
        type: 3}
      propertyPath: m_AnchorMin.y
      value: 1
      objectReference: {fileID: 0}
    - target: {fileID: 5041939817772949404, guid: b43184f0045012444a69c45fc0f13f8a,
        type: 3}
      propertyPath: m_AnchorMax.x
      value: 1
      objectReference: {fileID: 0}
    - target: {fileID: 5041939817772949404, guid: b43184f0045012444a69c45fc0f13f8a,
        type: 3}
      propertyPath: m_AnchorMax.y
      value: 1
      objectReference: {fileID: 0}
    - target: {fileID: 5041939817772949404, guid: b43184f0045012444a69c45fc0f13f8a,
        type: 3}
      propertyPath: m_Pivot.x
      value: 0.5
      objectReference: {fileID: 0}
    - target: {fileID: 5041939817772949404, guid: b43184f0045012444a69c45fc0f13f8a,
        type: 3}
      propertyPath: m_Pivot.y
      value: 0.5
      objectReference: {fileID: 0}
    - target: {fileID: 5041939817772949404, guid: b43184f0045012444a69c45fc0f13f8a,
        type: 3}
      propertyPath: m_LocalScale.x
      value: 1
      objectReference: {fileID: 0}
    - target: {fileID: 5041939817772949404, guid: b43184f0045012444a69c45fc0f13f8a,
        type: 3}
      propertyPath: m_LocalScale.y
      value: 1
      objectReference: {fileID: 0}
    - target: {fileID: 5041939817772949404, guid: b43184f0045012444a69c45fc0f13f8a,
        type: 3}
      propertyPath: m_LocalScale.z
      value: 1
      objectReference: {fileID: 0}
    - target: {fileID: 5041939817772949405, guid: b43184f0045012444a69c45fc0f13f8a,
        type: 3}
      propertyPath: m_havePropertiesChanged
      value: 0
      objectReference: {fileID: 0}
    - target: {fileID: 5041939817772949405, guid: b43184f0045012444a69c45fc0f13f8a,
        type: 3}
      propertyPath: m_isInputParsingRequired
      value: 0
      objectReference: {fileID: 0}
    - target: {fileID: 5041939817772949405, guid: b43184f0045012444a69c45fc0f13f8a,
        type: 3}
      propertyPath: m_text
      value: 'GOLD:'
      objectReference: {fileID: 0}
    - target: {fileID: 5041939817772949405, guid: b43184f0045012444a69c45fc0f13f8a,
        type: 3}
      propertyPath: m_textInfo.characterCount
      value: 5
      objectReference: {fileID: 0}
    - target: {fileID: 5041939817772949405, guid: b43184f0045012444a69c45fc0f13f8a,
        type: 3}
      propertyPath: m_textInfo.wordCount
      value: 1
      objectReference: {fileID: 0}
    - target: {fileID: 5041939817772949405, guid: b43184f0045012444a69c45fc0f13f8a,
        type: 3}
      propertyPath: m_textInfo.lineCount
      value: 1
      objectReference: {fileID: 0}
    - target: {fileID: 5041939817772949405, guid: b43184f0045012444a69c45fc0f13f8a,
        type: 3}
      propertyPath: m_textInfo.pageCount
      value: 1
      objectReference: {fileID: 0}
    - target: {fileID: 5041939817772949405, guid: b43184f0045012444a69c45fc0f13f8a,
        type: 3}
      propertyPath: m_fontAsset
      value: 
      objectReference: {fileID: 11400000, guid: 8f586378b4e144a9851e7b34d9b748ee,
        type: 2}
    - target: {fileID: 5041939817772949405, guid: b43184f0045012444a69c45fc0f13f8a,
        type: 3}
      propertyPath: m_sharedMaterial
      value: 
      objectReference: {fileID: 2180264, guid: 8f586378b4e144a9851e7b34d9b748ee, type: 2}
    - target: {fileID: 5041939817772949405, guid: b43184f0045012444a69c45fc0f13f8a,
        type: 3}
      propertyPath: m_fontSize
      value: 35
      objectReference: {fileID: 0}
    - target: {fileID: 5041939817772949405, guid: b43184f0045012444a69c45fc0f13f8a,
        type: 3}
      propertyPath: m_fontSizeBase
      value: 35
      objectReference: {fileID: 0}
    - target: {fileID: 5041939817772949405, guid: b43184f0045012444a69c45fc0f13f8a,
        type: 3}
      propertyPath: m_textAlignment
      value: 513
      objectReference: {fileID: 0}
    m_RemovedComponents: []
  m_SourcePrefab: {fileID: 100100000, guid: b43184f0045012444a69c45fc0f13f8a, type: 3}
--- !u!224 &9057861023905490237 stripped
RectTransform:
  m_CorrespondingSourceObject: {fileID: 5041939817772949404, guid: b43184f0045012444a69c45fc0f13f8a,
    type: 3}
  m_PrefabInstance: {fileID: 4056455810702588577}
  m_PrefabAsset: {fileID: 0}
--- !u!1001 &9057861022563390743
PrefabInstance:
  m_ObjectHideFlags: 0
  serializedVersion: 2
  m_Modification:
    m_TransformParent: {fileID: 4056455809379049474}
    m_Modifications:
    - target: {fileID: 5041939817772949403, guid: b43184f0045012444a69c45fc0f13f8a,
        type: 3}
      propertyPath: m_Name
      value: GoldText
      objectReference: {fileID: 0}
    - target: {fileID: 5041939817772949404, guid: b43184f0045012444a69c45fc0f13f8a,
        type: 3}
      propertyPath: m_LocalPosition.x
      value: 0
      objectReference: {fileID: 0}
    - target: {fileID: 5041939817772949404, guid: b43184f0045012444a69c45fc0f13f8a,
        type: 3}
      propertyPath: m_LocalPosition.y
      value: 0
      objectReference: {fileID: 0}
    - target: {fileID: 5041939817772949404, guid: b43184f0045012444a69c45fc0f13f8a,
        type: 3}
      propertyPath: m_LocalPosition.z
      value: 0
      objectReference: {fileID: 0}
    - target: {fileID: 5041939817772949404, guid: b43184f0045012444a69c45fc0f13f8a,
        type: 3}
      propertyPath: m_LocalRotation.x
      value: -0
      objectReference: {fileID: 0}
    - target: {fileID: 5041939817772949404, guid: b43184f0045012444a69c45fc0f13f8a,
        type: 3}
      propertyPath: m_LocalRotation.y
      value: -0
      objectReference: {fileID: 0}
    - target: {fileID: 5041939817772949404, guid: b43184f0045012444a69c45fc0f13f8a,
        type: 3}
      propertyPath: m_LocalRotation.z
      value: -0
      objectReference: {fileID: 0}
    - target: {fileID: 5041939817772949404, guid: b43184f0045012444a69c45fc0f13f8a,
        type: 3}
      propertyPath: m_LocalRotation.w
      value: 1
      objectReference: {fileID: 0}
    - target: {fileID: 5041939817772949404, guid: b43184f0045012444a69c45fc0f13f8a,
        type: 3}
      propertyPath: m_RootOrder
      value: 1
      objectReference: {fileID: 0}
    - target: {fileID: 5041939817772949404, guid: b43184f0045012444a69c45fc0f13f8a,
        type: 3}
      propertyPath: m_LocalEulerAnglesHint.x
      value: 0
      objectReference: {fileID: 0}
    - target: {fileID: 5041939817772949404, guid: b43184f0045012444a69c45fc0f13f8a,
        type: 3}
      propertyPath: m_LocalEulerAnglesHint.y
      value: 0
      objectReference: {fileID: 0}
    - target: {fileID: 5041939817772949404, guid: b43184f0045012444a69c45fc0f13f8a,
        type: 3}
      propertyPath: m_LocalEulerAnglesHint.z
      value: 0
      objectReference: {fileID: 0}
    - target: {fileID: 5041939817772949404, guid: b43184f0045012444a69c45fc0f13f8a,
        type: 3}
      propertyPath: m_AnchoredPosition.x
      value: 0
      objectReference: {fileID: 0}
    - target: {fileID: 5041939817772949404, guid: b43184f0045012444a69c45fc0f13f8a,
        type: 3}
      propertyPath: m_AnchoredPosition.y
      value: -30.7
      objectReference: {fileID: 0}
    - target: {fileID: 5041939817772949404, guid: b43184f0045012444a69c45fc0f13f8a,
        type: 3}
      propertyPath: m_SizeDelta.x
      value: 0
      objectReference: {fileID: 0}
    - target: {fileID: 5041939817772949404, guid: b43184f0045012444a69c45fc0f13f8a,
        type: 3}
      propertyPath: m_SizeDelta.y
      value: 61.4
      objectReference: {fileID: 0}
    - target: {fileID: 5041939817772949404, guid: b43184f0045012444a69c45fc0f13f8a,
        type: 3}
      propertyPath: m_AnchorMin.x
      value: 0
      objectReference: {fileID: 0}
    - target: {fileID: 5041939817772949404, guid: b43184f0045012444a69c45fc0f13f8a,
        type: 3}
      propertyPath: m_AnchorMin.y
      value: 1
      objectReference: {fileID: 0}
    - target: {fileID: 5041939817772949404, guid: b43184f0045012444a69c45fc0f13f8a,
        type: 3}
      propertyPath: m_AnchorMax.x
      value: 1
      objectReference: {fileID: 0}
    - target: {fileID: 5041939817772949404, guid: b43184f0045012444a69c45fc0f13f8a,
        type: 3}
      propertyPath: m_AnchorMax.y
      value: 1
      objectReference: {fileID: 0}
    - target: {fileID: 5041939817772949404, guid: b43184f0045012444a69c45fc0f13f8a,
        type: 3}
      propertyPath: m_Pivot.x
      value: 0.5
      objectReference: {fileID: 0}
    - target: {fileID: 5041939817772949404, guid: b43184f0045012444a69c45fc0f13f8a,
        type: 3}
      propertyPath: m_Pivot.y
      value: 0.5
      objectReference: {fileID: 0}
    - target: {fileID: 5041939817772949404, guid: b43184f0045012444a69c45fc0f13f8a,
        type: 3}
      propertyPath: m_LocalScale.x
      value: 1
      objectReference: {fileID: 0}
    - target: {fileID: 5041939817772949404, guid: b43184f0045012444a69c45fc0f13f8a,
        type: 3}
      propertyPath: m_LocalScale.y
      value: 1
      objectReference: {fileID: 0}
    - target: {fileID: 5041939817772949404, guid: b43184f0045012444a69c45fc0f13f8a,
        type: 3}
      propertyPath: m_LocalScale.z
      value: 1
      objectReference: {fileID: 0}
    - target: {fileID: 5041939817772949405, guid: b43184f0045012444a69c45fc0f13f8a,
        type: 3}
      propertyPath: m_havePropertiesChanged
      value: 0
      objectReference: {fileID: 0}
    - target: {fileID: 5041939817772949405, guid: b43184f0045012444a69c45fc0f13f8a,
        type: 3}
      propertyPath: m_isInputParsingRequired
      value: 0
      objectReference: {fileID: 0}
    - target: {fileID: 5041939817772949405, guid: b43184f0045012444a69c45fc0f13f8a,
        type: 3}
      propertyPath: m_textAlignment
      value: 516
      objectReference: {fileID: 0}
    m_RemovedComponents: []
  m_SourcePrefab: {fileID: 100100000, guid: b43184f0045012444a69c45fc0f13f8a, type: 3}
--- !u!224 &4056455809360349835 stripped
RectTransform:
  m_CorrespondingSourceObject: {fileID: 5041939817772949404, guid: b43184f0045012444a69c45fc0f13f8a,
    type: 3}
  m_PrefabInstance: {fileID: 9057861022563390743}
  m_PrefabAsset: {fileID: 0}
