%YAML 1.1
%TAG !u! tag:unity3d.com,2011:
--- !u!1045 &1
EditorBuildSettings:
  m_ObjectHideFlags: 0
  serializedVersion: 2
  m_Scenes:
  - enabled: 1
    path: Assets/Scenes/StartGameScene.unity
    guid: f2905a80760c2494da7feaadc68e6fa8
  - enabled: 1
    path: Assets/Scenes/MainScene.unity
    guid: a8dd0a3b08a0aa249aba644b502e7db6
  - enabled: 1
    path: Assets/Scenes/BuyEggScene.unity
    guid: 9ed1a1875e957814dafddc4748617e4b
  - enabled: 1
    path: Assets/Scenes/TopDownDragonShooterScene.unity
    guid: d2e536bbb49d1eb42a89d9bbc8f6fe08
  - enabled: 1
    path: Assets/Scenes/FallingDragonsScene.unity
    guid: 2cda990e2423bbf4892e6590ba056729
  - enabled: 1
    path: Assets/Scenes/MapScene.unity
    guid: 32ab3deb57c8a8242b8f1a89f1c7f735
  - enabled: 1
    path: Assets/Scenes/BattleScene.unity
    guid: 00f4713322491ba49be25ff43e04bb0d
  m_configObjects: {}
